Limpieza de datos
…
4) Seleccionar variables con R base

Antes de abordar datos, es fundamental difinir el tipo de análisis
que se desea realizar. Para ello, la adecuada selección de variables
facilitará la posterior manipulación de los datos.

Para seleccionar las variables se utilizarán los corchetes “[ ]”.
Como se quiere seleccionar variables, se debe especificar a R que se
trabajará con columnas, para ello se debe incorporar una coma luego del
primer corchete. Por ejemplo:

data[, 1] #En este caso, se está seleccionando la primera columna (variable) de la base de datos data_omit.

## # A tibble: 410 × 1
##    group
##    <dbl>
##  1     1
##  2     1
##  3     1
##  4     1
##  5     1
##  6     1
##  7     1
##  8     1
##  9     1
## 10     1
## # ℹ 400 more rows

data[, c(1,2,3)] #En este ejemplo, se están seleccionando las variables número uno, dos y tres

## # A tibble: 410 × 3
##    group Number A1_Conflict_perception
##    <dbl>  <dbl>                  <dbl>
##  1     1      1                      3
##  2     1      2                      2
##  3     1      3                      3
##  4     1      4                      3
##  5     1      5                      3
##  6     1      6                      3
##  7     1      7                      2
##  8     1      8                      3
##  9     1      9                      2
## 10     1     10                      2
## # ℹ 400 more rows

También es posible seleccionar un intervalo de columnas.

data[, 1:5] #Acá se está seleccionando de la primera a la quinta variable.

## # A tibble: 410 × 5
##    group Number A1_Conflict_perception A2_Conflict_perception
##    <dbl>  <dbl>                  <dbl>                  <dbl>
##  1     1      1                      3                      1
##  2     1      2                      2                      2
##  3     1      3                      3                      1
##  4     1      4                      3                      1
##  5     1      5                      3                      2
##  6     1      6                      3                      2
##  7     1      7                      2                      2
##  8     1      8                      3                      1
##  9     1      9                      2                      3
## 10     1     10                      2                      3
## # ℹ 400 more rows
## # ℹ 1 more variable: A3_Conflict_perception <dbl>

5) Filtrar observaciones con R base

Para este caso, como se quiere filtrar las observaciones, la coma se
debe colocar antes del segundo corchete. Por ejemplo:

data[data$married == 1, ] #Se están filtrando las observaciones de las personas que sí están casadas.

## # A tibble: 114 × 55
##    group Number A1_Conflict_perception A2_Conflict_perception
##    <dbl>  <dbl>                  <dbl>                  <dbl>
##  1     1      2                      2                      2
##  2     1      3                      3                      1
##  3     1      4                      3                      1
##  4     1      5                      3                      2
##  5     1      6                      3                      2
##  6     1      7                      2                      2
##  7     1     10                      2                      3
##  8     1     12                      2                      1
##  9     1     14                      2                      3
## 10     1     17                      3                      3
## # ℹ 104 more rows
## # ℹ 51 more variables: A3_Conflict_perception <dbl>,
## #   A4_Conflict_perception <dbl>, A5_Conflict_perception <dbl>,
## #   A6_Conflict_perception <dbl>, A7_Conflict_perception <dbl>,
## #   A8_Conflict_perception <dbl>, A9_Conflict_perception <dbl>,
## #   A10_Conflict_perception <dbl>, A11_Conflict_perception <dbl>,
## #   A12_Conflict_perception <dbl>, A13_Conflict_perception <dbl>, …
…
